129M	RDXVA2016/fehm_TA16_V1_40m/images
594M	RDXVA2016/fehm_TA16_V1_40m/zones
801M	RDXVA2016/fehm_TA16_V1_40m
17M	RDXVA2016/hex_polyA_V1_40m/connect/pyramid/old_pyramid
8.0K	RDXVA2016/hex_polyA_V1_40m/connect/pyramid/scale_pyramid
429M	RDXVA2016/hex_polyA_V1_40m/connect/pyramid
855M	RDXVA2016/hex_polyA_V1_40m/connect
58M	RDXVA2016/hex_polyA_V1_40m/images
1019M	RDXVA2016/hex_polyA_V1_40m
9.4M	RDXVA2016/data/images
264K	RDXVA2016/data/polys_recharge
124M	RDXVA2016/data
5.6M	RDXVA2016/2D_polyA_V1.0
41M	RDXVA2016/TA16_data/surf_full_wtrs/images
292M	RDXVA2016/TA16_data/surf_full_wtrs
902M	RDXVA2016/TA16_data/surf_from_2grds
1.2G	RDXVA2016/TA16_data
85M	RDXVA2016/web_pages
3.2G	RDXVA2016
3.2G	total
